Tibble formatting trouble
…
            Tibble formatting trouble

Tibble formatting trouble

Tiernan Martin

2017-02-04

This is a test

mtcars %>% rownames_to_column() %>% as_tibble()

## # A tibble: 32 × 12
##              rowname   mpg   cyl  disp    hp  drat
##                <chr> <dbl> <dbl> <dbl> <dbl> <dbl>
## 1          Mazda RX4  21.0     6 160.0   110  3.90
## 2      Mazda RX4 Wag  21.0     6 160.0   110  3.90
## 3         Datsun 710  22.8     4 108.0    93  3.85
## 4     Hornet 4 Drive  21.4     6 258.0   110  3.08
## 5  Hornet Sportabout  18.7     8 360.0   175  3.15
## 6            Valiant  18.1     6 225.0   105  2.76
## 7         Duster 360  14.3     8 360.0   245  3.21
## 8          Merc 240D  24.4     4 146.7    62  3.69
## 9           Merc 230  22.8     4 140.8    95  3.92
## 10          Merc 280  19.2     6 167.6   123  3.92
## # ... with 22 more rows, and 6 more variables:
## #   wt <dbl>, qsec <dbl>, vs <dbl>, am <dbl>,
## #   gear <dbl>, carb <dbl>
